{
  "extends": ["./tslint-ng.json", "tslint-config-prettier"],
  "rules": {
    "no-console": [true, "info", "time", "timeEnd", "trace", "log"],
    "no-empty-interface": false,
    "no-use-before-declare": false,
    "no-unused-variable": [true, { "ignore-pattern": "^_" }],
    "ban": [true, ["fit"], ["fdescribe"], ["xit"], ["xdescribe"]],
    "banana-in-box": true,
    "templates-no-negated-async": true,
    "ordered-imports": [true],
    "import-blacklist": [true, "rxjs/Rx", "lodash"]
  }
}
